[
  {
    "element-6066-11e4-a52e-4f735466cecf": "7054d851-3312-45d6-a183-55f6e1de72eb"
  },
  {
    "element-6066-11e4-a52e-4f735466cecf": "5ab62595-16f8-44b5-b990-c5538981e656"
  },
  {
    "element-6066-11e4-a52e-4f735466cecf": "7d23816a-23c1-4282-8935-a26448fd0468"
  },
  {
    "element-6066-11e4-a52e-4f735466cecf": "fd506c40-8afe-4961-b805-ab6971ddac0c"
  },
  {
    "element-6066-11e4-a52e-4f735466cecf": "98f9dd4d-ea51-461f-9037-59cfe028b71f"
  },
  {
    "element-6066-11e4-a52e-4f735466cecf": "314af07e-0c01-468f-9f54-66ecb5560270"
  }
]