{
  "uid" : "ab17fc5a4eb3bca4b216b548c7f9fcbc",
  "name" : "timeline",
  "children" : [ {
    "name" : "1-0",
    "children" : [ {
      "name" : "Should cointain link on banner button  and verify its clickable",
      "uid" : "c631edb1297643f9",
      "parentUid" : "5d884c24784638b93056bad95e3212e7",
      "status" : "passed",
      "time" : {
        "start" : 1623813715938,
        "stop" : 1623813717188,
        "duration" : 1250
      },
      "flaky" : false,
      "newFailed" : false,
      "parameters" : [ "firefox-78.10.0" ]
    }, {
      "name" : "Should click on banner button  and verify the new url",
      "uid" : "2fa83547450b685d",
      "parentUid" : "5d884c24784638b93056bad95e3212e7",
      "status" : "passed",
      "time" : {
        "start" : 1623813717189,
        "stop" : 1623813724340,
        "duration" : 7151
      },
      "flaky" : false,
      "newFailed" : false,
      "parameters" : [ "firefox-78.10.0" ]
    }, {
      "name" : "Should show the Promo banner container",
      "uid" : "8a564ee182a50cfc",
      "parentUid" : "5d884c24784638b93056bad95e3212e7",
      "status" : "passed",
      "time" : {
        "start" : 1623813709440,
        "stop" : 1623813715218,
        "duration" : 5778
      },
      "flaky" : false,
      "newFailed" : false,
      "parameters" : [ "firefox-78.10.0" ]
    }, {
      "name" : "Should show the banner title",
      "uid" : "7dfdad921962fede",
      "parentUid" : "5d884c24784638b93056bad95e3212e7",
      "status" : "passed",
      "time" : {
        "start" : 1623813715218,
        "stop" : 1623813715937,
        "duration" : 719
      },
      "flaky" : false,
      "newFailed" : false,
      "parameters" : [ "firefox-78.10.0" ]
    } ],
    "uid" : "5d884c24784638b93056bad95e3212e7"
  }, {
    "name" : "0-1",
    "children" : [ {
      "name" : "Should update the search category",
      "uid" : "4b81a4d02becb324",
      "parentUid" : "27fa874cadc1574e37a07abb440963bd",
      "status" : "passed",
      "time" : {
        "start" : 1623813710298,
        "stop" : 1623813710770,
        "duration" : 472
      },
      "flaky" : false,
      "newFailed" : false,
      "parameters" : [ "chrome-91.0.4472.106" ]
    }, {
      "name" : "Should redirect to a new page and verify the title",
      "uid" : "5d91721d44fcc7c9",
      "parentUid" : "27fa874cadc1574e37a07abb440963bd",
      "status" : "passed",
      "time" : {
        "start" : 1623813710241,
        "stop" : 1623813710297,
        "duration" : 56
      },
      "flaky" : false,
      "newFailed" : false,
      "parameters" : [ "chrome-91.0.4472.106" ]
    }, {
      "name" : "Should search for a prpduct and verify the search text value",
      "uid" : "bd2bbb7823f8ed3f",
      "parentUid" : "27fa874cadc1574e37a07abb440963bd",
      "status" : "passed",
      "time" : {
        "start" : 1623813701364,
        "stop" : 1623813710240,
        "duration" : 8876
      },
      "flaky" : false,
      "newFailed" : false,
      "parameters" : [ "chrome-91.0.4472.106" ]
    }, {
      "name" : "Should open the main url and verify the title",
      "uid" : "a01bc58d46804d39",
      "parentUid" : "27fa874cadc1574e37a07abb440963bd",
      "status" : "passed",
      "time" : {
        "start" : 1623813697875,
        "stop" : 1623813701364,
        "duration" : 3489
      },
      "flaky" : false,
      "newFailed" : false,
      "parameters" : [ "chrome-91.0.4472.106" ]
    } ],
    "uid" : "27fa874cadc1574e37a07abb440963bd"
  }, {
    "name" : "0-0",
    "children" : [ {
      "name" : "Should show the Promo banner container",
      "uid" : "15252de630061d1d",
      "parentUid" : "516fe00eea05ad99e936fa729b55eff4",
      "status" : "passed",
      "time" : {
        "start" : 1623813697474,
        "stop" : 1623813702275,
        "duration" : 4801
      },
      "flaky" : false,
      "newFailed" : false,
      "parameters" : [ "chrome-91.0.4472.106" ]
    }, {
      "name" : "Should show the banner title",
      "uid" : "81f29aea8a08548",
      "parentUid" : "516fe00eea05ad99e936fa729b55eff4",
      "status" : "passed",
      "time" : {
        "start" : 1623813702275,
        "stop" : 1623813702543,
        "duration" : 268
      },
      "flaky" : false,
      "newFailed" : false,
      "parameters" : [ "chrome-91.0.4472.106" ]
    }, {
      "name" : "Should cointain link on banner button  and verify its clickable",
      "uid" : "ab819f581a76602f",
      "parentUid" : "516fe00eea05ad99e936fa729b55eff4",
      "status" : "passed",
      "time" : {
        "start" : 1623813702543,
        "stop" : 1623813702796,
        "duration" : 253
      },
      "flaky" : false,
      "newFailed" : false,
      "parameters" : [ "chrome-91.0.4472.106" ]
    }, {
      "name" : "Should click on banner button  and verify the new url",
      "uid" : "99fccfeae882011c",
      "parentUid" : "516fe00eea05ad99e936fa729b55eff4",
      "status" : "passed",
      "time" : {
        "start" : 1623813702796,
        "stop" : 1623813705940,
        "duration" : 3144
      },
      "flaky" : false,
      "newFailed" : false,
      "parameters" : [ "chrome-91.0.4472.106" ]
    } ],
    "uid" : "516fe00eea05ad99e936fa729b55eff4"
  }, {
    "name" : "1-2",
    "children" : [ {
      "name" : "Should show the banner title",
      "uid" : "56d4a58416fa5e79",
      "parentUid" : "aaf9cc9bc103c872529dc4d1947b03c1",
      "status" : "failed",
      "time" : {
        "start" : 1623813720839,
        "stop" : 1623813731642,
        "duration" : 10803
      },
      "flaky" : false,
      "newFailed" : false,
      "parameters" : [ "firefox-78.10.0" ]
    }, {
      "name" : "Should show the Promo banner container",
      "uid" : "ae1fd9f0e047ffc3",
      "parentUid" : "aaf9cc9bc103c872529dc4d1947b03c1",
      "status" : "passed",
      "time" : {
        "start" : 1623813720616,
        "stop" : 1623813720839,
        "duration" : 223
      },
      "flaky" : false,
      "newFailed" : false,
      "parameters" : [ "firefox-78.10.0" ]
    }, {
      "name" : "Should cointain link on banner button  and verify its clickable",
      "uid" : "2aae0ad3288910e0",
      "parentUid" : "aaf9cc9bc103c872529dc4d1947b03c1",
      "status" : "passed",
      "time" : {
        "start" : 1623813731642,
        "stop" : 1623813731753,
        "duration" : 111
      },
      "flaky" : false,
      "newFailed" : false,
      "parameters" : [ "firefox-78.10.0" ]
    }, {
      "name" : "Should click on banner button  and verify the new url",
      "uid" : "71eff750a66c8a77",
      "parentUid" : "aaf9cc9bc103c872529dc4d1947b03c1",
      "status" : "passed",
      "time" : {
        "start" : 1623813731753,
        "stop" : 1623813733779,
        "duration" : 2026
      },
      "flaky" : false,
      "newFailed" : false,
      "parameters" : [ "firefox-78.10.0" ]
    }, {
      "name" : "Should verify the watches category list",
      "uid" : "e6e7586a7b8fe513",
      "parentUid" : "aaf9cc9bc103c872529dc4d1947b03c1",
      "status" : "passed",
      "time" : {
        "start" : 1623813709499,
        "stop" : 1623813720615,
        "duration" : 11116
      },
      "flaky" : false,
      "newFailed" : false,
      "parameters" : [ "firefox-78.10.0" ]
    } ],
    "uid" : "aaf9cc9bc103c872529dc4d1947b03c1"
  }, {
    "name" : "0-2",
    "children" : [ {
      "name" : "Should cointain link on banner button  and verify its clickable",
      "uid" : "e513a4942823f0d3",
      "parentUid" : "880a094af3dffab161e2023284569d6f",
      "status" : "passed",
      "time" : {
        "start" : 1623813722944,
        "stop" : 1623813723332,
        "duration" : 388
      },
      "flaky" : false,
      "newFailed" : false,
      "parameters" : [ "chrome-91.0.4472.106" ]
    }, {
      "name" : "Should show the banner title",
      "uid" : "c1b79f9d548b15ba",
      "parentUid" : "880a094af3dffab161e2023284569d6f",
      "status" : "failed",
      "time" : {
        "start" : 1623813711534,
        "stop" : 1623813722943,
        "duration" : 11409
      },
      "flaky" : false,
      "newFailed" : false,
      "parameters" : [ "chrome-91.0.4472.106" ]
    }, {
      "name" : "Should verify the watches category list",
      "uid" : "fe8a1b76d5c291cf",
      "parentUid" : "880a094af3dffab161e2023284569d6f",
      "status" : "passed",
      "time" : {
        "start" : 1623813698037,
        "stop" : 1623813711446,
        "duration" : 13409
      },
      "flaky" : false,
      "newFailed" : false,
      "parameters" : [ "chrome-91.0.4472.106" ]
    }, {
      "name" : "Should show the Promo banner container",
      "uid" : "2b2be2ab6093abe3",
      "parentUid" : "880a094af3dffab161e2023284569d6f",
      "status" : "passed",
      "time" : {
        "start" : 1623813711447,
        "stop" : 1623813711534,
        "duration" : 87
      },
      "flaky" : false,
      "newFailed" : false,
      "parameters" : [ "chrome-91.0.4472.106" ]
    }, {
      "name" : "Should click on banner button  and verify the new url",
      "uid" : "ed6dcf4b7376efc1",
      "parentUid" : "880a094af3dffab161e2023284569d6f",
      "status" : "passed",
      "time" : {
        "start" : 1623813723332,
        "stop" : 1623813725426,
        "duration" : 2094
      },
      "flaky" : false,
      "newFailed" : false,
      "parameters" : [ "chrome-91.0.4472.106" ]
    } ],
    "uid" : "880a094af3dffab161e2023284569d6f"
  }, {
    "name" : "1-1",
    "children" : [ {
      "name" : "Should update the search category",
      "uid" : "ceaed6174755a083",
      "parentUid" : "7f515bb52d6d225c0a299e7d9c0e2786",
      "status" : "passed",
      "time" : {
        "start" : 1623813732859,
        "stop" : 1623813733726,
        "duration" : 867
      },
      "flaky" : false,
      "newFailed" : false,
      "parameters" : [ "firefox-78.10.0" ]
    }, {
      "name" : "Should open the main url and verify the title",
      "uid" : "43042fc6555573a4",
      "parentUid" : "7f515bb52d6d225c0a299e7d9c0e2786",
      "status" : "passed",
      "time" : {
        "start" : 1623813709503,
        "stop" : 1623813714663,
        "duration" : 5160
      },
      "flaky" : false,
      "newFailed" : false,
      "parameters" : [ "firefox-78.10.0" ]
    }, {
      "name" : "Should redirect to a new page and verify the title",
      "uid" : "85e41212a2fdae63",
      "parentUid" : "7f515bb52d6d225c0a299e7d9c0e2786",
      "status" : "passed",
      "time" : {
        "start" : 1623813732806,
        "stop" : 1623813732859,
        "duration" : 53
      },
      "flaky" : false,
      "newFailed" : false,
      "parameters" : [ "firefox-78.10.0" ]
    }, {
      "name" : "Should search for a prpduct and verify the search text value",
      "uid" : "d2356c716935e4ce",
      "parentUid" : "7f515bb52d6d225c0a299e7d9c0e2786",
      "status" : "passed",
      "time" : {
        "start" : 1623813714664,
        "stop" : 1623813732806,
        "duration" : 18142
      },
      "flaky" : false,
      "newFailed" : false,
      "parameters" : [ "firefox-78.10.0" ]
    } ],
    "uid" : "7f515bb52d6d225c0a299e7d9c0e2786"
  } ]
}