{
  "60f8cfcdc38d141844880dbff2031c89" : {
    "statistic" : {
      "failed" : 0,
      "broken" : 0,
      "skipped" : 0,
      "passed" : 1,
      "unknown" : 0,
      "total" : 1
    },
    "items" : [ {
      "uid" : "e6e7586a7b8fe513",
      "status" : "passed",
      "time" : {
        "start" : 1623813709499,
        "stop" : 1623813720615,
        "duration" : 11116
      }
    } ]
  },
  "eb285bc7049ff6fe1d83bab70f1b0b35" : {
    "statistic" : {
      "failed" : 0,
      "broken" : 0,
      "skipped" : 0,
      "passed" : 1,
      "unknown" : 0,
      "total" : 1
    },
    "items" : [ {
      "uid" : "5d91721d44fcc7c9",
      "status" : "passed",
      "time" : {
        "start" : 1623813710241,
        "stop" : 1623813710297,
        "duration" : 56
      }
    } ]
  },
  "1a9a45c2205a7a90a0df7b1d523ab1e8" : {
    "statistic" : {
      "failed" : 1,
      "broken" : 0,
      "skipped" : 0,
      "passed" : 0,
      "unknown" : 0,
      "total" : 1
    },
    "items" : [ {
      "uid" : "c1b79f9d548b15ba",
      "status" : "failed",
      "statusDetails" : "Expect $(`.b-promobanner__info-title`) to have text containing\n                \n                Expected: \"Shoes\"\n                Received: \"Up to 30% off Rolex\"",
      "time" : {
        "start" : 1623813711534,
        "stop" : 1623813722943,
        "duration" : 11409
      }
    } ]
  },
  "a9fd5260ec09010a80e113a2d6a355a9" : {
    "statistic" : {
      "failed" : 0,
      "broken" : 0,
      "skipped" : 0,
      "passed" : 1,
      "unknown" : 0,
      "total" : 1
    },
    "items" : [ {
      "uid" : "85e41212a2fdae63",
      "status" : "passed",
      "time" : {
        "start" : 1623813732806,
        "stop" : 1623813732859,
        "duration" : 53
      }
    } ]
  },
  "2b8dc3ba2541dc85eed6d8d1bfd7f420" : {
    "statistic" : {
      "failed" : 0,
      "broken" : 0,
      "skipped" : 0,
      "passed" : 1,
      "unknown" : 0,
      "total" : 1
    },
    "items" : [ {
      "uid" : "bd2bbb7823f8ed3f",
      "status" : "passed",
      "time" : {
        "start" : 1623813701364,
        "stop" : 1623813710240,
        "duration" : 8876
      }
    } ]
  },
  "1cd76f0e74b995d1cecf1c5e1b2b265c" : {
    "statistic" : {
      "failed" : 0,
      "broken" : 0,
      "skipped" : 0,
      "passed" : 1,
      "unknown" : 0,
      "total" : 1
    },
    "items" : [ {
      "uid" : "2b2be2ab6093abe3",
      "status" : "passed",
      "time" : {
        "start" : 1623813711447,
        "stop" : 1623813711534,
        "duration" : 87
      }
    } ]
  },
  "a2810192f343c291fd122d5bb0f2ccca" : {
    "statistic" : {
      "failed" : 0,
      "broken" : 0,
      "skipped" : 0,
      "passed" : 1,
      "unknown" : 0,
      "total" : 1
    },
    "items" : [ {
      "uid" : "2aae0ad3288910e0",
      "status" : "passed",
      "time" : {
        "start" : 1623813731642,
        "stop" : 1623813731753,
        "duration" : 111
      }
    } ]
  },
  "24f5a46a87b85045e564c4aa81c8e863" : {
    "statistic" : {
      "failed" : 0,
      "broken" : 0,
      "skipped" : 0,
      "passed" : 1,
      "unknown" : 0,
      "total" : 1
    },
    "items" : [ {
      "uid" : "ae1fd9f0e047ffc3",
      "status" : "passed",
      "time" : {
        "start" : 1623813720616,
        "stop" : 1623813720839,
        "duration" : 223
      }
    } ]
  },
  "5b5238821e240aaf1192284fcef8f1e0" : {
    "statistic" : {
      "failed" : 0,
      "broken" : 0,
      "skipped" : 0,
      "passed" : 1,
      "unknown" : 0,
      "total" : 1
    },
    "items" : [ {
      "uid" : "e513a4942823f0d3",
      "status" : "passed",
      "time" : {
        "start" : 1623813722944,
        "stop" : 1623813723332,
        "duration" : 388
      }
    } ]
  },
  "7a603af089621a575ce9378719cf0568" : {
    "statistic" : {
      "failed" : 0,
      "broken" : 0,
      "skipped" : 0,
      "passed" : 1,
      "unknown" : 0,
      "total" : 1
    },
    "items" : [ {
      "uid" : "fe8a1b76d5c291cf",
      "status" : "passed",
      "time" : {
        "start" : 1623813698037,
        "stop" : 1623813711446,
        "duration" : 13409
      }
    } ]
  },
  "e6ab15e3cf0934468de4fb66b521f1f8" : {
    "statistic" : {
      "failed" : 0,
      "broken" : 0,
      "skipped" : 0,
      "passed" : 1,
      "unknown" : 0,
      "total" : 1
    },
    "items" : [ {
      "uid" : "a01bc58d46804d39",
      "status" : "passed",
      "time" : {
        "start" : 1623813697875,
        "stop" : 1623813701364,
        "duration" : 3489
      }
    } ]
  },
  "43df1c2f97a5fb20e874bbd34f329737" : {
    "statistic" : {
      "failed" : 0,
      "broken" : 0,
      "skipped" : 0,
      "passed" : 1,
      "unknown" : 0,
      "total" : 1
    },
    "items" : [ {
      "uid" : "ed6dcf4b7376efc1",
      "status" : "passed",
      "time" : {
        "start" : 1623813723332,
        "stop" : 1623813725426,
        "duration" : 2094
      }
    } ]
  },
  "196d5a87a7b43eddbda4115bf11567" : {
    "statistic" : {
      "failed" : 1,
      "broken" : 0,
      "skipped" : 0,
      "passed" : 0,
      "unknown" : 0,
      "total" : 1
    },
    "items" : [ {
      "uid" : "56d4a58416fa5e79",
      "status" : "failed",
      "statusDetails" : "Expect $(`.b-promobanner__info-title`) to have text containing\n                \n                Expected: \"Shoes\"\n                Received: \"Up to 30% off Rolex\"",
      "time" : {
        "start" : 1623813720839,
        "stop" : 1623813731642,
        "duration" : 10803
      }
    } ]
  },
  "410a5f407dd7eaa96a59af3f0fc90a8a" : {
    "statistic" : {
      "failed" : 0,
      "broken" : 0,
      "skipped" : 0,
      "passed" : 1,
      "unknown" : 0,
      "total" : 1
    },
    "items" : [ {
      "uid" : "71eff750a66c8a77",
      "status" : "passed",
      "time" : {
        "start" : 1623813731753,
        "stop" : 1623813733779,
        "duration" : 2026
      }
    } ]
  },
  "4cc78994cccc08abfd092ed39bebf825" : {
    "statistic" : {
      "failed" : 0,
      "broken" : 0,
      "skipped" : 0,
      "passed" : 1,
      "unknown" : 0,
      "total" : 1
    },
    "items" : [ {
      "uid" : "ceaed6174755a083",
      "status" : "passed",
      "time" : {
        "start" : 1623813732859,
        "stop" : 1623813733726,
        "duration" : 867
      }
    } ]
  },
  "cda96b63a1a7fec9484e49fc7618f4e7" : {
    "statistic" : {
      "failed" : 0,
      "broken" : 0,
      "skipped" : 0,
      "passed" : 1,
      "unknown" : 0,
      "total" : 1
    },
    "items" : [ {
      "uid" : "d2356c716935e4ce",
      "status" : "passed",
      "time" : {
        "start" : 1623813714664,
        "stop" : 1623813732806,
        "duration" : 18142
      }
    } ]
  },
  "e5a25d0d4bccd239eedae76ea53ceef9" : {
    "statistic" : {
      "failed" : 0,
      "broken" : 0,
      "skipped" : 0,
      "passed" : 1,
      "unknown" : 0,
      "total" : 1
    },
    "items" : [ {
      "uid" : "43042fc6555573a4",
      "status" : "passed",
      "time" : {
        "start" : 1623813709503,
        "stop" : 1623813714663,
        "duration" : 5160
      }
    } ]
  },
  "2878888ab1961da5c431abe5ec56619f" : {
    "statistic" : {
      "failed" : 0,
      "broken" : 0,
      "skipped" : 0,
      "passed" : 1,
      "unknown" : 0,
      "total" : 1
    },
    "items" : [ {
      "uid" : "4b81a4d02becb324",
      "status" : "passed",
      "time" : {
        "start" : 1623813710298,
        "stop" : 1623813710770,
        "duration" : 472
      }
    } ]
  }
}